{
    "time": "2022-02-14T20:44:03.759+00:00",
    "results":
    [
      {
        "isin": "US19260Q1076",
        "p": 274.0,
        "v": 2,
        "t": "2021-10-28T09:05:14.474+00:00",
        "mic": "XMUN"
        }
    ],
    "previous": null, 
    "next": null, 
    "total": 999, 
    "page": 2, 
    "pages": 10
  }