{
    "time": "2022-02-14T20:44:03.759+00:00",
    "results":
    [
      {
        "isin": "US19260Q1076",
        "wkn": "A2QP7J",
        "name": "COINBASE GLB.CL.A -,00001",
        "title": "COINBASE GLOBAL INC",
        "symbol": "1QZ",
        "type": "stock",
        "venues":
        [
          {
            "name": "Börse München - Gettex",
            "title": "Gettex",
            "mic": "XMUN",
            "is_open": true,
            "tradable": true,
            "currency": "EUR"
          }
        ]
      }
    ],
    "previous": null,
    "next": null,
    "total": 26283,
    "page": 2,
    "pages": 263
  }