{
    "time":"2021-11-21T19:34:45.071+00:00",
    "status": "ok",
    "mode":"paper",
    "results": [
      {
        "isin": "US19260Q1076",
        "isin_title": "COINBASE GLOBAL INC.",
        "quantity": 2,
        "buy_price_avg": 2965000,
        "estimated_price_total": 5800000,
        "estimated_price": 2900000
      }
    ],
    "previous": "https://paper-trading.lemon.markets/v1/portfolio/?limit=10&page=1", 
    "next": "https://paper-trading.lemon.markets/v1/portfolio/?limit=10&page=3", 
    "total": 33, 
    "page": 2, 
    "pages": 4
  }
  