{
    "time": "2021-12-15T11:21:21.023+00:00",
    "status": "ok",
    "mode":"paper",
    "results": [
      {
        "id": "wtd_pyQTPbbLLMNBQTM0mzkK7Ygb8kH60Ff10X",
        "amount": 1000000,
        "created_at": "2021-12-15T11:21:05.853+00:00",
        "date": "2021-12-15T23:12:02.765+00:00",
        "idempotency": "1234abcd"
      }
    ],
    "previous": null,
    "next": null,
    "total": 80,
    "page": 2,
    "pages": 4
  }