{
    "time":"2021-11-21T19:34:45.071+00:00",
    "status": "ok",
    "mode":"money",
    "results": [
      {
        "id": "hs_pyHJLHHNBHbK943xcyYdB8l4scC0dJs2xW",
        "order_id": "ord_pyNBHJJ66Mp9k3YHztpBb1m984WRGCYq5D",
        "external_id": null,
        "type": "order_buy",
        "quantity": 1,
        "isin": "US19260Q1076",
        "isin_title": "COINBASE GLOBAL INC.",
        "date": "2021-12-10",
        "created_at": "2021-12-10T07:57:12.628+00:00"
      }
    ],
    "previous": null, 
    "next": null, 
    "total": 33, 
    "page": 2, 
    "pages": 4
  }