{
    "time": "2021-11-22T15:41:04.028+00:00",
    "mode":"paper",
    "status": "ok",
    "results": [
      {
        "id": "doc_pyNjNcc77ht3T3lH8dJa5fD8jhj2JHJ1xX",
        "name": "account_opening.pdf",
        "created_at": "2021-10-19T14:58:52.813Z",
        "category": "kyc",
        "link": "'https://trading.lemon.markets/v1/account/documents/doc_pyNjNcc77ht3T3lH8dJa5fD8jhj2JHJ1xX",
        "viewed_first_at": "2021-10-19T14:58:52.813Z",
        "viewed_last_at": "2021-10-19T14:58:52.813Z"
      }
    ],
    "previous": null,
    "next": null,
    "total": 80,
    "page": 2,
    "pages": 4
  }